%YAML 1.1
%TAG !u! tag:unity3d.com,2011:
--- !u!21 &2100000
Material:
  serializedVersion: 3
  m_ObjectHideFlags: 0
  m_PrefabParentObject: {fileID: 0}
  m_PrefabInternal: {fileID: 0}
  m_Name: SimpleGlass
  m_Shader: {fileID: 4800000, guid: adf37d6b2b7b2c8458c8d2bec9f2b059, type: 3}
  m_ShaderKeywords: []
  m_CustomRenderQueue: -1
  m_SavedProperties:
    serializedVersion: 2
    m_TexEnvs:
      data:
        first:
          name: _MainTex
        second:
          m_Texture: {fileID: 2800000, guid: 0a2c1ff721263404e9228881ee468b04, type: 3}
          m_Scale: {x: .200000003, y: .200000003}
          m_Offset: {x: 0, y: 0}
      data:
        first:
          name: _BumpMap
        second:
          m_Texture: {fileID: 0}
          m_Scale: {x: 1, y: 1}
          m_Offset: {x: 0, y: 0}
      data:
        first:
          name: _Tex
        second:
          m_Texture: {fileID: 0}
          m_Scale: {x: 1, y: 1}
          m_Offset: {x: 0, y: 0}
      data:
        first:
          name: _Detail
        second:
          m_Texture: {fileID: 2800000, guid: 642b70dd831e7cd48ab2d4393033fed4, type: 3}
          m_Scale: {x: 1, y: 1}
          m_Offset: {x: 0, y: 0}
      data:
        first:
          name: _Illum
        second:
          m_Texture: {fileID: 2800000, guid: d9943645dd7e83a47af8acba9f8275bf, type: 3}
          m_Scale: {x: 1, y: 1}
          m_Offset: {x: 0, y: 0}
      data:
        first:
          name: _EnvMap
        second:
          m_Texture: {fileID: 2800000, guid: e55e3c008a1877d47828fb3de21a9ff1, type: 3}
          m_Scale: {x: 1, y: 1}
          m_Offset: {x: 0, y: 0}
      data:
        first:
          name: _Cube
        second:
          m_Texture: {fileID: 8900000, guid: 1e01c5067f3532544adfb9829c298c06, type: 2}
          m_Scale: {x: 1, y: 1}
          m_Offset: {x: 0, y: 0}
      data:
        first:
          name: _ParallaxMap
        second:
          m_Texture: {fileID: 0}
          m_Scale: {x: 1, y: 1}
          m_Offset: {x: 0, y: 0}
    m_Floats:
      data:
        first:
          name: _Shininess
        second: 1
      data:
        first:
          name: _EmissionLM
        second: 0
      data:
        first:
          name: _InvFade
        second: 1
      data:
        first:
          name: _Parallax
        second: .0799999982
    m_Colors:
      data:
        first:
          name: _Color
        second: {r: 1, g: 1, b: 1, a: .34117648}
      data:
        first:
          name: _SpecColor
        second: {r: 1, g: 1, b: 1, a: 0}
      data:
        first:
          name: _Emission
        second: {r: .913649082, g: 0, b: 1, a: 1}
      data:
        first:
          name: _Tint
        second: {r: .5, g: .5, b: .5, a: .5}
      data:
        first:
          name: _ReflectColor
        second: {r: 1, g: 1, b: 1, a: .5}
--- !u!1002 &2100001
EditorExtensionImpl:
  serializedVersion: 6
